M48
; DRILL file {KiCad 5.1.9+dfsg1-1} date Sat Jun 26 09:58:01 2021
; FORMAT={-:-/ absolute / metric / decimal}
; #@! TF.CreationDate,2021-06-26T09:58:01+02:00
; #@! TF.GenerationSoftware,Kicad,Pcbnew,5.1.9+dfsg1-1
; #@! TF.FileFunction,Plated,1,2,PTH
FMAT,2
METRIC
T1C1.100
%
G90
G05
T1
X112.25Y-76.0
X112.25Y-82.0
X116.5Y-73.5
X116.5Y-79.0
X127.0Y-85.0
X129.0Y-64.0
X130.0Y-89.0
X132.0Y-59.25
X133.0Y-85.0
X135.0Y-64.0
X136.0Y-89.0
X138.0Y-59.25
X139.0Y-85.0
X141.0Y-64.0
X142.0Y-89.0
X144.0Y-59.25
X145.0Y-85.0
X147.0Y-64.0
X148.0Y-89.0
X150.0Y-59.25
X164.0Y-64.0
X167.0Y-59.25
X170.0Y-64.0
X173.0Y-59.25
X176.0Y-64.0
X179.0Y-59.25
X182.0Y-64.0
X185.0Y-59.25
X186.25Y-75.75
X189.0Y-71.0
X192.25Y-75.75
X195.0Y-71.0
T0
M30
